1, 0.591716, AA, 55.8319
2, 1.18343, KK, 49.6209
3, 1.77515, QQ, 44.5199
4, 2.36686, JJ, 40.0011
5, 2.95858, TT, 36.0624
6, 3.5503, AKs, 34.7832
7, 4.14201, AQs, 33.1275
8, 4.73373, 99, 32.2608
9, 5.32544, KQs, 31.8459
10, 5.91716, AJs, 31.8438
11, 6.50888, AKo, 31.6627
12, 7.10059, ATs, 30.5483
13, 7.69231, KJs, 30.5437
14, 8.28402, AQo, 29.857
15, 8.87574, QJs, 29.7141
16, 9.46746, KTs, 29.4339
17, 10.0592, 88, 29.0028
18, 10.6509, KQo, 28.7238
19, 11.2426, QTs, 28.5789
20, 11.8343, AJo, 28.2757
21, 12.426, JTs, 28.1963
22, 13.0178, A9s, 27.6437
23, 13.6095, KJo, 27.1606
24, 14.2012, ATo, 26.8892
25, 14.7929, A8s, 26.8068
26, 15.3846, K9s, 26.7024
27, 15.9763, QJo, 26.3805
28, 16.568, 77, 26.1601
29, 17.1598, Q9s, 26.006
30, 17.7515, KTo, 25.8828
31, 18.3432, A7s, 25.8326
32, 18.9349, J9s, 25.5255
33, 19.5266, T9s, 25.4576
34, 20.1183, A5s, 25.425
35, 20.7101, QTo, 25.1209
36, 21.3018, A6s, 24.8901
37, 21.8935, A4s, 24.8318
38, 22.4852, JTo, 24.8261
39, 23.0769, K8s, 24.6534
40, 23.6686, A3s, 24.2901
41, 24.2604, A9o, 23.9339
42, 24.8521, 66, 23.9064
43, 25.4438, Q8s, 23.8914
44, 26.0355, K7s, 23.8862
45, 26.6272, T8s, 23.5518
46, 27.2189, J8s, 23.53
47, 27.8107, A2s, 23.517
48, 28.4024, 98s, 23.3324
49, 28.9941, K6s, 22.9925
50, 29.5858, K9o, 22.9254
51, 30.1775, A8o, 22.8668
52, 30.7692, K5s, 22.3596
53, 31.3609, Q9o, 22.191
54, 31.9527, T9o, 21.9793
55, 32.5444, Q7s, 21.949
56, 33.1361, K4s, 21.9353
57, 33.7278, J9o, 21.8845
58, 34.3195, A7o, 21.8503
59, 34.9112, J7s, 21.7649
60, 35.503, T7s, 21.7199
61, 36.0947, 87s, 21.6919
62, 36.6864, 55, 21.6862
63, 37.2781, 97s, 21.6558
64, 37.8698, K3s, 21.3818
65, 38.4615, Q6s, 21.3523
66, 39.0533, A5o, 21.2919
67, 39.645, Q5s, 20.9033
68, 40.2367, K2s, 20.8367
69, 40.8284, K8o, 20.7118
70, 41.4201, A6o, 20.6686
71, 42.0118, A4o, 20.6495
72, 42.6036, 76s, 20.4193
73, 43.1953, 86s, 20.2898
74, 43.787, Q4s, 20.2454
75, 44.3787, A3o, 19.995
76, 44.9704, Q8o, 19.993
77, 45.5621, T6s, 19.9765
78, 46.1538, 96s, 19.9565
79, 46.7456, J6s, 19.8981
80, 47.3373, T8o, 19.8451
81, 47.929, 44, 19.8033
82, 48.5207, K7o, 19.7874
83, 49.1124, J8o, 19.7834
84, 49.7041, Q3s, 19.7652
85, 50.2959, J5s, 19.6347
86, 50.8876, 98o, 19.5722
87, 51.4793, 65s, 19.3856
88, 52.071, Q2s, 19.2159
89, 52.6627, A2o, 19.1535
90, 53.2544, K6o, 19.0244
91, 53.8462, 75s, 19.018
92, 54.4379, J4s, 18.999
93, 55.0296, 54s, 18.6744
94, 55.6213, 85s, 18.5986
95, 56.213, T5s, 18.4869
96, 56.8047, J3s, 18.4297
97, 57.3964, 95s, 18.3639
98, 57.9882, K5o, 18.2615
99, 58.5799, 33, 18.1773
100, 59.1716, T4s, 18.0501
101, 59.7633, J2s, 18.0086
102, 60.355, Q7o, 17.9886
103, 60.9467, 87o, 17.9859
104, 61.5385, 64s, 17.9856
105, 62.1302, 97o, 17.8767
106, 62.7219, T7o, 17.7906
107, 63.3136, J7o, 17.7397
108, 63.9053, K4o, 17.6989
109, 64.497, 74s, 17.5241
110, 65.0888, T3s, 17.5062
111, 65.6805, 53s, 17.3394
112, 66.2722, Q6o, 17.2925
113, 66.8639, 84s, 17.1148
114, 67.4556, T2s, 17.0313
115, 68.0473, K3o, 17.0086
116, 68.6391, 22, 16.9316
117, 69.2308, 94s, 16.8842
118, 69.8225, 43s, 16.7432
119, 70.4142, Q5o, 16.7002
120, 71.0059, 63s, 16.5932
121, 71.5976, 76o, 16.5876
122, 72.1893, 93s, 16.5282
123, 72.7811, K2o, 16.4506
124, 73.3728, 86o, 16.3283
125, 73.9645, 73s, 16.0773
126, 74.5562, 92s, 16.0611
127, 75.1479, 96o, 16.045
128, 75.7396, J6o, 16.0056
129, 76.3314, Q4o, 15.9964
130, 76.9231, T6o, 15.996
131, 77.5148, 83s, 15.8052
132, 78.1065, 52s, 15.7566
133, 78.6982, J5o, 15.4507
134, 79.2899, Q3o, 15.4113
135, 79.8817, 65o, 15.4056
136, 80.4734, 42s, 15.3844
137, 81.0651, 82s, 15.3077
138, 81.6568, 75o, 15.0857
139, 82.2485, 62s, 14.9936
140, 82.8402, Q2o, 14.9063
141, 83.432, 32s, 14.8174
142, 84.0237, J4o, 14.7235
143, 84.6154, 54o, 14.7029
144, 85.2071, 72s, 14.6849
145, 85.7988, 85o, 14.6824
146, 86.3905, 95o, 14.3492
147, 86.9822, T5o, 14.2814
148, 87.574, J3o, 14.2443
149, 88.1657, 64o, 13.9659
150, 88.7574, T4o, 13.8848
151, 89.3491, J2o, 13.6527
152, 89.9408, 74o, 13.4314
153, 90.5325, 53o, 13.3024
154, 91.1243, T3o, 13.2513
155, 91.716, 84o, 12.9844
156, 92.3077, T2o, 12.8125
157, 92.8994, 94o, 12.6883
158, 93.4911, 43o, 12.5134
159, 94.0828, 63o, 12.4779
160, 94.6746, 93o, 12.2652
161, 95.2663, 73o, 11.8595
162, 95.858, 92o, 11.751
163, 96.4497, 52o, 11.6543
164, 97.0414, 83o, 11.4485
165, 97.6331, 42o, 11.107
166, 98.2249, 82o, 10.9849
167, 98.8166, 62o, 10.8326
168, 99.4083, 32o, 10.4872
169, 100, 72o, 10.3351
